<?xml version="1.0" encoding="UTF-8" standalone="no"?>
<!-- Created with Inkscape (http://www.inkscape.org/) -->

<svg
   xmlns:dc="http://purl.org/dc/elements/1.1/"
   xmlns:cc="http://creativecommons.org/ns#"
   xmlns:rdf="http://www.w3.org/1999/02/22-rdf-syntax-ns#"
   xmlns:svg="http://www.w3.org/2000/svg"
   xmlns="http://www.w3.org/2000/svg"
   version="1.1"
   width="744.09448"
   height="1052.3622"
   id="svg2">
  <defs
     id="defs4">
    <marker
       refX="0"
       refY="0"
       orient="auto"
       id="Arrow1Lend"
       style="overflow:visible">
      <path
         d="M 0,0 5,-5 -12.5,0 5,5 0,0 z"
         transform="matrix(-0.8,0,0,-0.8,-10,0)"
         id="path4521"
         style="fill-rule:evenodd;stroke:#000000;stroke-width:1pt" />
    </marker>
    <linearGradient
       id="linearGradient3765">
      <stop
         id="stop3767"
         style="stop-color:#0000ff;stop-opacity:1"
         offset="0" />
    </linearGradient>
  </defs>
  <metadata
     id="metadata7">
    <rdf:RDF>
      <cc:Work
         rdf:about="">
        <dc:format>image/svg+xml</dc:format>
        <dc:type
           rdf:resource="http://purl.org/dc/dcmitype/StillImage" />
        <dc:title></dc:title>
      </cc:Work>
    </rdf:RDF>
  </metadata>
  <g
     id="layer1">
    <rect
       width="78.755577"
       height="38.755581"
       x="150.62221"
       y="407.98441"
       id="rect3961"
       style="fill:#d1def0;fill-opacity:1;stroke:#6fa2ce;stroke-width:1.24442065;stroke-miterlimit:4;stroke-opacity:1;stroke-dasharray:none;stroke-dashoffset:0" />
    <rect
       width="78.755577"
       height="38.755581"
       x="525.62219"
       y="347.98441"
       id="rect3961-2"
       style="fill:#d1def0;fill-opacity:1;stroke:#6fa2ce;stroke-width:1.24442065;stroke-miterlimit:4;stroke-opacity:1;stroke-dasharray:none;stroke-dashoffset:0" />
    <rect
       width="78.755577"
       height="38.755581"
       x="525.62219"
       y="407.98441"
       id="rect3961-7"
       style="fill:#d1def0;fill-opacity:1;stroke:#6fa2ce;stroke-width:1.24442065;stroke-miterlimit:4;stroke-opacity:1;stroke-dasharray:none;stroke-dashoffset:0" />
    <rect
       width="78.755577"
       height="38.755581"
       x="525.62219"
       y="467.98441"
       id="rect3961-79"
       style="fill:#d1def0;fill-opacity:1;stroke:#6fa2ce;stroke-width:1.24442065;stroke-miterlimit:4;stroke-opacity:1;stroke-dasharray:none;stroke-dashoffset:0" />
    <rect
       width="97.898018"
       height="47.898018"
       ry="12.531442"
       x="326.05099"
       y="353.41318"
       id="rect4165"
       style="fill:#dcddde;fill-opacity:1;stroke:#7c7d80;stroke-width:2.10198212;stroke-linecap:butt;stroke-linejoin:miter;stroke-miterlimit:4;stroke-opacity:1;stroke-dasharray:none;stroke-dashoffset:0" />
    <rect
       width="97.898018"
       height="47.898018"
       rx="48.949009"
       ry="23.949009"
       x="326.05099"
       y="453.41318"
       id="rect4165-6"
       style="fill:#9bb9dc;fill-opacity:1;stroke:#508ec3;stroke-width:2.10198212;stroke-linecap:butt;stroke-linejoin:miter;stroke-miterlimit:4;stroke-opacity:1;stroke-dasharray:none;stroke-dashoffset:0" />
    <text
       x="299.38232"
       y="569.50507"
       id="text4220"
       xml:space="preserve"
       style="font-size:11px;font-style:normal;font-weight:normal;line-height:125%;letter-spacing:0px;word-spacing:0px;fill:#000000;fill-opacity:1;stroke:none;font-family:Sans"><tspan
         x="299.38232"
         y="569.50507"
         id="tspan4222">Communication Infrastructure</tspan></text>
    <rect
       width="53.004223"
       height="23.004225"
       rx="10.797731"
       ry="11.502112"
       x="235.99788"
       y="413.36008"
       id="rect4224"
       style="fill:#699aca;fill-opacity:1;stroke:#0066a8;stroke-width:1.99577463;stroke-linecap:butt;stroke-linejoin:miter;stroke-miterlimit:4;stroke-opacity:1;stroke-dasharray:none;stroke-dashoffset:0" />
    <rect
       width="18.791506"
       height="23.791506"
       rx="9.3957529"
       ry="11.895741"
       x="235.60426"
       y="412.96643"
       id="rect4224-0"
       style="fill:#4f8ec3;fill-opacity:1;stroke:#0066a8;stroke-width:1.20849323;stroke-linecap:butt;stroke-linejoin:miter;stroke-miterlimit:4;stroke-opacity:1;stroke-dasharray:none;stroke-dashoffset:0" />
    <rect
       width="53.004223"
       height="23.004225"
       rx="10.797731"
       ry="11.502112"
       x="450.99789"
       y="358.36008"
       id="rect4224-2"
       style="fill:#699aca;fill-opacity:1;stroke:#0066a8;stroke-width:1.99577463;stroke-linecap:butt;stroke-linejoin:miter;stroke-miterlimit:4;stroke-opacity:1;stroke-dasharray:none;stroke-dashoffset:0" />
    <rect
       width="18.791506"
       height="23.791506"
       rx="9.3957529"
       ry="11.895741"
       x="450.60428"
       y="357.96643"
       id="rect4224-0-5"
       style="fill:#4f8ec3;fill-opacity:1;stroke:#0066a8;stroke-width:1.20849323;stroke-linecap:butt;stroke-linejoin:miter;stroke-miterlimit:4;stroke-opacity:1;stroke-dasharray:none;stroke-dashoffset:0" />
    <rect
       width="53.004223"
       height="23.004225"
       rx="10.797731"
       ry="11.502112"
       x="450.99789"
       y="413.36008"
       id="rect4224-1"
       style="fill:#699aca;fill-opacity:1;stroke:#0066a8;stroke-width:1.99577463;stroke-linecap:butt;stroke-linejoin:miter;stroke-miterlimit:4;stroke-opacity:1;stroke-dasharray:none;stroke-dashoffset:0" />
    <rect
       width="18.791506"
       height="23.791506"
       rx="9.3957529"
       ry="11.895741"
       x="450.60428"
       y="412.96643"
       id="rect4224-0-9"
       style="fill:#4f8ec3;fill-opacity:1;stroke:#0066a8;stroke-width:1.20849323;stroke-linecap:butt;stroke-linejoin:miter;stroke-miterlimit:4;stroke-opacity:1;stroke-dasharray:none;stroke-dashoffset:0" />
    <rect
       width="53.004223"
       height="23.004225"
       rx="10.797731"
       ry="11.502112"
       x="450.99789"
       y="473.36008"
       id="rect4224-7"
       style="fill:#699aca;fill-opacity:1;stroke:#0066a8;stroke-width:1.99577463;stroke-linecap:butt;stroke-linejoin:miter;stroke-miterlimit:4;stroke-opacity:1;stroke-dasharray:none;stroke-dashoffset:0" />
    <rect
       width="18.791506"
       height="23.791506"
       rx="9.3957529"
       ry="11.895741"
       x="450.60428"
       y="472.96643"
       id="rect4224-0-1"
       style="fill:#4f8ec3;fill-opacity:1;stroke:#0066a8;stroke-width:1.20849323;stroke-linecap:butt;stroke-linejoin:miter;stroke-miterlimit:4;stroke-opacity:1;stroke-dasharray:none;stroke-dashoffset:0" />
    <path
       d="m 571.74634,588.70215 a 128.28937,128.28937 0 1 1 -256.57874,0 128.28937,128.28937 0 1 1 256.57874,0 z"
       transform="matrix(0.96854849,0,0,0.96854849,-54.509579,-142.82439)"
       id="path2995"
       style="fill:#dcddde;fill-opacity:0;stroke:#77787b;stroke-width:1.53941703;stroke-miterlimit:4;stroke-opacity:1;stroke-dasharray:4.61825097, 1.53941699;stroke-dashoffset:0;marker-start:none" />
    <path
       d="m 230.00534,424.86218 13.78396,0"
       id="path4320"
       style="fill:none;stroke:#000000;stroke-width:1.00532281px;stroke-linecap:butt;stroke-linejoin:miter;stroke-opacity:1" />
    <path
       d="m 425.52676,377.32774 34.34519,-8.08122"
       id="path4324"
       style="fill:none;stroke:#000000;stroke-width:1px;stroke-linecap:butt;stroke-linejoin:miter;stroke-opacity:1" />
    <path
       d="m 425.24266,377.32774 34.4002,47.35587"
       id="path4328"
       style="fill:none;stroke:#000000;stroke-width:1px;stroke-linecap:butt;stroke-linejoin:miter;stroke-opacity:1" />
    <path
       d="m 425.35714,477.18361 34.46429,-51.96429"
       id="path4330"
       style="fill:none;stroke:#000000;stroke-width:1px;stroke-linecap:butt;stroke-linejoin:miter;stroke-opacity:1" />
    <path
       d="m 460.53572,485.93361 -35.35715,-9.10714"
       id="path4332"
       style="fill:none;stroke:#000000;stroke-width:1px;stroke-linecap:butt;stroke-linejoin:miter;stroke-opacity:1;marker-start:none;marker-end:none" />
    <path
       d="m 288.57143,432.00504 35.89286,43.57143"
       id="path5329"
       style="fill:none;stroke:#000000;stroke-width:1px;stroke-linecap:butt;stroke-linejoin:miter;stroke-opacity:1;marker-end:url(#Arrow1Lend)" />
    <path
       d="M 288.39286,417.71932 324.10714,375.3979"
       id="path5513"
       style="fill:none;stroke:#000000;stroke-width:1px;stroke-linecap:butt;stroke-linejoin:miter;stroke-opacity:1;marker-end:url(#Arrow1Lend)" />
    <path
       d="m 505.35714,369.50504 15.89286,0"
       id="path5879"
       style="fill:none;stroke:#000000;stroke-width:1px;stroke-linecap:butt;stroke-linejoin:miter;stroke-opacity:1;marker-end:url(#Arrow1Lend)" />
    <path
       d="m 505.35714,424.86218 15.89286,0"
       id="path6063"
       style="fill:none;stroke:#000000;stroke-width:1px;stroke-linecap:butt;stroke-linejoin:miter;stroke-opacity:1;marker-end:url(#Arrow1Lend)" />
    <path
       d="m 505.53572,484.86218 16.42857,0"
       id="path6247"
       style="fill:none;stroke:#000000;stroke-width:1px;stroke-linecap:butt;stroke-linejoin:miter;stroke-opacity:1;marker-end:url(#Arrow1Lend)" />
    <text
       x="188.0127"
       y="429.2984"
       id="text6431"
       xml:space="preserve"
       style="font-size:10px;font-style:normal;font-weight:normal;text-align:center;line-height:125%;letter-spacing:0px;word-spacing:0px;writing-mode:lr-tb;text-anchor:middle;fill:#000000;fill-opacity:1;stroke:none;font-family:Sans;-inkscape-font-specification:Sans"><tspan
         x="188.0127"
         y="429.2984"
         id="tspan6433"> Publisher</tspan></text>
    <text
       x="372.04965"
       y="377.62021"
       id="text6435"
       xml:space="preserve"
       style="font-size:11px;font-style:normal;font-variant:normal;font-weight:normal;font-stretch:normal;text-align:center;line-height:125%;letter-spacing:0px;word-spacing:0px;writing-mode:lr-tb;text-anchor:middle;fill:#000000;fill-opacity:1;stroke:none;font-family:Sans;-inkscape-font-specification:Sans"><tspan
         x="372.04965"
         y="377.62021"
         id="tspan6437"> Topic A</tspan></text>
    <text
       x="371.32465"
       y="477.62021"
       id="text6439"
       xml:space="preserve"
       style="font-size:11px;font-style:normal;font-variant:normal;font-weight:normal;font-stretch:normal;text-align:center;line-height:125%;letter-spacing:0px;word-spacing:0px;writing-mode:lr-tb;text-anchor:middle;fill:#000000;fill-opacity:1;stroke:none;font-family:Sans;-inkscape-font-specification:Sans"><tspan
         x="371.32465"
         y="477.62021"
         id="tspan6441"> Topic B</tspan></text>
    <text
       x="565.45319"
       y="369.35681"
       id="text6443"
       xml:space="preserve"
       style="font-size:11px;font-style:normal;font-variant:normal;font-weight:normal;font-stretch:normal;text-align:center;line-height:125%;letter-spacing:0px;word-spacing:0px;writing-mode:lr-tb;text-anchor:middle;fill:#000000;fill-opacity:1;stroke:none;font-family:Sans;-inkscape-font-specification:Sans"><tspan
         x="565.45319"
         y="369.35681"
         id="tspan6445"> Subscriber 1</tspan></text>
    <text
       x="564.0246"
       y="429.35681"
       id="text6447"
       xml:space="preserve"
       style="font-size:11px;font-style:normal;font-variant:normal;font-weight:normal;font-stretch:normal;text-align:center;line-height:125%;letter-spacing:0px;word-spacing:0px;writing-mode:lr-tb;text-anchor:middle;fill:#000000;fill-opacity:1;stroke:none;font-family:Sans;-inkscape-font-specification:Sans"><tspan
         x="564.0246"
         y="429.35681"
         id="tspan6449"> Subscriber 2</tspan></text>
    <text
       x="562.81458"
       y="487.86984"
       id="text6451"
       xml:space="preserve"
       style="font-size:10px;font-style:normal;font-variant:normal;font-weight:normal;font-stretch:normal;text-align:center;line-height:125%;letter-spacing:0px;word-spacing:0px;writing-mode:lr-tb;text-anchor:middle;fill:#000000;fill-opacity:1;stroke:none;font-family:Sans;-inkscape-font-specification:Sans"><tspan
         x="562.81458"
         y="487.86984"
         id="tspan6453"> Subscriber 3</tspan></text>
  </g>
</svg>
